# regex cats haven't changed

    Code
      ojoregex::ojo_regex_cats
    Output
      # A tibble: 125 x 19
         in_ojoregex clean_charge_description      category subcategory title statutes
         <lgl>       <chr>                         <chr>    <chr>       <chr> <chr>   
       1 TRUE        Hold                          Hold     Hold        <NA>  <NA>    
       2 TRUE        CDS Possession With Intent (~ Drug Cr~ CDS Distri~ 63    63 O.S.~
       3 TRUE        CDS Trafficking / Distributi~ Drug Cr~ CDS Distri~ 63    63 O.S.~
       4 TRUE        CDS Possession (Simple)       Drug Cr~ CDS Posses~ 63    63 O.S.~
       5 TRUE        CDS Possession (Proximate to~ Drug Cr~ CDS Posses~ 63    63 O.S.~
       6 TRUE        CDS Possession (Maintaining ~ Drug Cr~ CDS Posses~ 63    63 O.S.~
       7 TRUE        Larceny of a CDS              Drug Cr~ CDS Larceny 63    63 O.S.~
       8 TRUE        CDS Paraphernalia Possession~ Drug Cr~ CDS Paraph~ 63    63 O.S.~
       9 TRUE        CDS Possession (Tax Stamp)    Drug Cr~ CDS Posses~ 68    68 O.S.~
      10 TRUE        Obtain CDS by Fraud           Drug Cr~ CDS Posses~ 63    63 O.S.~
      # i 115 more rows
      # i 13 more variables: chapter <chr>, gist <chr>, description <chr>,
      #   statute_link <chr>, max_sentence_first_offense <chr>,
      #   max_sentence_any <chr>, cf_cm <chr>, cf_cm_notes <chr>, outdated <chr>,
      #   notes <chr>, sq780_status <lgl>, violent_crimes_list <lgl>,
      #   control_rank <dbl>
